Project 1: Analyzing World Population and Land Data
…
Wrangling

fulldata %>% mutate(total_urban_pop = `urban pop percentage` * 
    population) %>% mutate(total_ag_land = `surface area sq km` * 
    `ag land % of land area`) %>% filter(year == 2001)

## # A tibble: 195 x 8
##    country year  population `ag land % of l… `urban pop perc… `surface area s…
##    <chr>   <chr>      <dbl>            <dbl>            <dbl>            <dbl>
##  1 Afghan… 2001    21600000            0.578            0.222           653000
##  2 Albania 2001     3130000            0.416            0.424            28800
##  3 Algeria 2001    31500000            0.168            0.607          2380000
##  4 Andorra 2001       67300            0.484            0.921              470
##  5 Angola  2001    16900000            0.46             0.513          1250000
##  6 Antigu… 2001       77200            0.205            0.317              440
##  7 Argent… 2001    37300000            0.47             0.893          2780000
##  8 Armenia 2001     3050000            0.466            0.644            29700
##  9 Austra… 2001    19200000            0.593            0.841          7740000
## 10 Austria 2001     8100000            0.353            0.599            83900
## # … with 185 more rows, and 2 more variables: total_urban_pop <dbl>,
## #   total_ag_land <dbl>

fulldata %>% mutate(total_urban_pop = `urban pop percentage` * 
    population) %>% mutate(total_ag_land = `surface area sq km` * 
    `ag land % of land area`) %>% filter(year == 1961)

## # A tibble: 195 x 8
##    country year  population `ag land % of l… `urban pop perc… `surface area s…
##    <chr>   <chr>      <dbl>            <dbl>            <dbl>            <dbl>
##  1 Afghan… 1961     9170000            0.577           0.0868           653000
##  2 Albania 1961     1690000            0.45            0.309             28800
##  3 Algeria 1961    11300000            0.191           0.318           2380000
##  4 Andorra 1961       14400            0.553           0.61                470
##  5 Angola  1961     5530000            0.459           0.108           1250000
##  6 Antigu… 1961       55000            0.227           0.39                440
##  7 Argent… 1961    20800000            0.504           0.742           2780000
##  8 Armenia 1961     1940000           NA               0.521             29700
##  9 Austra… 1961    10400000            0.601           0.819           7740000
## 10 Austria 1961     7110000            0.431           0.648             83900
## # … with 185 more rows, and 2 more variables: total_urban_pop <dbl>,
## #   total_ag_land <dbl>

newvar <- c(fulldata %>% mutate(total_urban_pop = `urban pop percentage` * 
    population) %>% mutate(total_ag_land = `surface area sq km` * 
    `ag land % of land area`))

Wrangling II

newvar1 <- as.data.frame(newvar)
newvar1 %>% group_by(year) %>% summarise(mean(population))

## # A tibble: 56 x 2
##    year  `mean(population)`
##    <fct>              <dbl>
##  1 1961           15761233.
##  2 1962           16055951.
##  3 1963           16363208.
##  4 1964           16680203.
##  5 1965           17017910.
##  6 1966           17363647.
##  7 1967           17727175.
##  8 1968           18098461.
##  9 1969           18469813.
## 10 1970           18858702.
## # … with 46 more rows

newvar1 %>% group_by(country) %>% summarise(max(total_ag_land))

## # A tibble: 195 x 2
##    country             `max(total_ag_land)`
##    <fct>                              <dbl>
##  1 Afghanistan                      380699 
##  2 Albania                           13075.
##  3 Algeria                          454580 
##  4 Andorra                             260.
##  5 Angola                           593750 
##  6 Antigua and Barbuda                 110 
##  7 Argentina                       1515100 
##  8 Armenia                              NA 
##  9 Australia                       4914900 
## 10 Austria                           36161.
## # … with 185 more rows

newvar1 %>% group_by(country) %>% summarise(sd(urban.pop.percentage))

## # A tibble: 195 x 2
##    country             `sd(urban.pop.percentage)`
##    <fct>                                    <dbl>
##  1 Afghanistan                            0.0519 
##  2 Albania                                0.0816 
##  3 Algeria                                0.116  
##  4 Andorra                                0.0865 
##  5 Angola                                 0.179  
##  6 Antigua and Barbuda                    0.0374 
##  7 Argentina                              0.0525 
##  8 Armenia                                0.0393 
##  9 Australia                              0.00936
## 10 Austria                                0.0303 
## # … with 185 more rows

newvar1 %>% group_by(country) %>% summarise(min(surface.area.sq.km))

## # A tibble: 195 x 2
##    country             `min(surface.area.sq.km)`
##    <fct>                                   <dbl>
##  1 Afghanistan                            653000
##  2 Albania                                 28800
##  3 Algeria                               2380000
##  4 Andorra                                   470
##  5 Angola                                1250000
##  6 Antigua and Barbuda                       440
##  7 Argentina                             2780000
##  8 Armenia                                 29700
##  9 Australia                             7740000
## 10 Austria                                 83900
## # … with 185 more rows

newvar1 %>% summarise(median(population))

##   median(population)
## 1            4960000

newvar1 %>% group_by(year) %>% summarise(mean(population))

## # A tibble: 56 x 2
##    year  `mean(population)`
##    <fct>              <dbl>
##  1 1961           15761233.
##  2 1962           16055951.
##  3 1963           16363208.
##  4 1964           16680203.
##  5 1965           17017910.
##  6 1966           17363647.
##  7 1967           17727175.
##  8 1968           18098461.
##  9 1969           18469813.
## 10 1970           18858702.
## # … with 46 more rows
…
